Dhanshree Dhrafani’s Data Insights
…
ℹ Use `spec()` to retrieve the full column specification for this data.
ℹ Specify the column types or set `show_col_types = FALSE` to quiet this message.

# Data cleaning process
cleaned_classics <- classics %>%
  filter(!is.na(`metadata.downloads`), !is.na(`metrics.difficulty.flesch reading ease`)) %>%
  select(Title = `bibliography.title`, 
         Downloads = `metadata.downloads`, 
         Readability = `metrics.difficulty.flesch reading ease`,
         PublicationYear = `bibliography.publication.year`)
         
# Preview the cleaned dataset
print(cleaned_classics)

# A tibble: 1,006 × 4
   Title                                   Downloads Readability PublicationYear
   <chr>                                       <dbl>       <dbl>           <dbl>
 1 Pride and Prejudice                         36576        70.1            1998
 2 The Yellow Wallpaper                        26363        81.6            1999
 3 Alice's Adventures in Wonderland            18882        79.6            1994
 4 Frankenstein; Or, The Modern Prometheus     17128        65.0            2008
 5 Metamorphosis                               15683        69.4            2005
 6 Adventures of Huckleberry Finn              15347        86.0            2006
 7 The Importance of Being Earnest: A Tri…     13638        78.2            2006
 8 The Adventures of Tom Sawyer                13237        81.6            2006
 9 Narrative of the Life of Frederick Dou…     12794        69.1            2006
10 A Doll's House : a play                     11625        86.7            2001
# ℹ 996 more rows
…
